\relax 
\providecommand\hyper@newdestlabel[2]{}
\catcode `"\active 
\catcode `<\active 
\catcode `>\active 
\@nameuse{es@quoting}
\catcode `'\active 
\providecommand\HyperFirstAtBeginDocument{\AtBeginDocument}
\HyperFirstAtBeginDocument{\ifx\hyper@anchor\@undefined
\global\let\oldcontentsline\contentsline
\gdef\contentsline#1#2#3#4{\oldcontentsline{#1}{#2}{#3}}
\global\let\oldnewlabel\newlabel
\gdef\newlabel#1#2{\newlabelxx{#1}#2}
\gdef\newlabelxx#1#2#3#4#5#6{\oldnewlabel{#1}{{#2}{#3}}}
\AtEndDocument{\ifx\hyper@anchor\@undefined
\let\contentsline\oldcontentsline
\let\newlabel\oldnewlabel
\fi}
\fi}
\global\let\hyper@last\relax 
\gdef\HyperFirstAtBeginDocument#1{#1}
\providecommand\HyField@AuxAddToFields[1]{}
\providecommand\HyField@AuxAddToCoFields[2]{}
\providecommand \oddpage@label [2]{}
\babel@aux{spanish}{}
\@writefile{toc}{\contentsline {chapter}{\numberline {1}Introducci\IeC {\'o}n}{1}{chapter.1}}
\@writefile{lof}{\addvspace {10\p@ }}
\@writefile{lot}{\addvspace {10\p@ }}
\@writefile{toc}{\contentsline {section}{\numberline {1.1}Objetivo}{1}{section.1.1}}
\@writefile{toc}{\contentsline {section}{\numberline {1.2}Material e instrumental necesarios}{1}{section.1.2}}
\@writefile{toc}{\contentsline {section}{\numberline {1.3}Introducci\IeC {\'o}n}{1}{section.1.3}}
\@writefile{toc}{\contentsline {chapter}{\numberline {2}Desarrollo}{3}{chapter.2}}
\@writefile{lof}{\addvspace {10\p@ }}
\@writefile{lot}{\addvspace {10\p@ }}
\@writefile{toc}{\contentsline {section}{\numberline {2.1}Experimento 1: Analisis de una forma de onda cuadrada.}{3}{section.2.1}}
\@writefile{lof}{\contentsline {figure}{\numberline {2.1}{\ignorespaces Oscilogramas que se esperan obtener\relax }}{4}{figure.caption.2}}
\providecommand*\caption@xref[2]{\@setref\relax\@undefined{#1}}
\newlabel{fig:im1}{{2.1}{4}{Oscilogramas que se esperan obtener\relax }{figure.caption.2}{}}
\@writefile{lot}{\contentsline {table}{\numberline {2.1}{\ignorespaces Frecuencia de las componentes espectrales de una se\IeC {\~n}al cuadrada de 1KHz\relax }}{4}{table.caption.3}}
\newlabel{tab:tab1}{{2.1}{4}{Frecuencia de las componentes espectrales de una señal cuadrada de 1KHz\relax }{table.caption.3}{}}
\@writefile{lot}{\contentsline {table}{\numberline {2.2}{\ignorespaces Amplitudes de las componentes espectrales de una se\IeC {\~n}al cuadrada de 1KHz\relax }}{5}{table.caption.4}}
\newlabel{tab:tab2}{{2.2}{5}{Amplitudes de las componentes espectrales de una señal cuadrada de 1KHz\relax }{table.caption.4}{}}
\@writefile{toc}{\contentsline {section}{\numberline {2.2}Experimento 2: An\IeC {\'a}lisis de un tren de pulsos}{5}{section.2.2}}
\@writefile{lof}{\contentsline {figure}{\numberline {2.2}{\ignorespaces Relacion per\IeC {\'\i }odo-tiempo-frecuencia\relax }}{5}{figure.caption.5}}
\newlabel{fig:im2}{{2.2}{5}{Relacion período-tiempo-frecuencia\relax }{figure.caption.5}{}}
\@writefile{lof}{\contentsline {figure}{\numberline {2.3}{\ignorespaces Componentes espectrales sin valor de fase relativo\relax }}{6}{figure.caption.6}}
\newlabel{fig:im3}{{2.3}{6}{Componentes espectrales sin valor de fase relativo\relax }{figure.caption.6}{}}
\@writefile{lof}{\contentsline {figure}{\numberline {2.4}{\ignorespaces Componentes espectrales esperadas de un tren de pulsos\relax }}{6}{figure.caption.7}}
\newlabel{fig:im4}{{2.4}{6}{Componentes espectrales esperadas de un tren de pulsos\relax }{figure.caption.7}{}}
\@writefile{lot}{\contentsline {table}{\numberline {2.3}{\ignorespaces Frecuencia de las componentes espectrales de una se\IeC {\~n}al cuadrada de 1KHz\relax }}{7}{table.caption.8}}
\newlabel{tab:tab3}{{2.3}{7}{Frecuencia de las componentes espectrales de una señal cuadrada de 1KHz\relax }{table.caption.8}{}}
\@writefile{lot}{\contentsline {table}{\numberline {2.4}{\ignorespaces Frecuencia de los ``valles'' de una se\IeC {\~n}al cuadrada de 1KHz\relax }}{7}{table.caption.9}}
\newlabel{tab:tab4}{{2.4}{7}{Frecuencia de los ``valles'' de una señal cuadrada de 1KHz\relax }{table.caption.9}{}}
\@writefile{toc}{\contentsline {section}{\numberline {2.3}Experimento 3: Observacion de frecuencias ``Alias''}{8}{section.2.3}}
\@writefile{toc}{\contentsline {section}{\numberline {2.4}Experimento 4: An\IeC {\'a}lisis de una se\IeC {\~n}al modulada en amplitud}{8}{section.2.4}}
\@writefile{lof}{\contentsline {figure}{\numberline {2.5}{\ignorespaces Esquema del modulador en Amplitud\relax }}{9}{figure.caption.10}}
\newlabel{fig:im5}{{2.5}{9}{Esquema del modulador en Amplitud\relax }{figure.caption.10}{}}
\@writefile{toc}{\contentsline {section}{\numberline {2.5}Experimento 5: Observaci\IeC {\'o}n de los productos de IMD de tercer orden}{10}{section.2.5}}
\@writefile{lof}{\contentsline {figure}{\numberline {2.6}{\ignorespaces Gr\IeC {\'a}fico de amplitudes y frecuencias para el calculo de rechazo a IMD de tercer orden\relax }}{11}{figure.caption.11}}
\newlabel{fig:im6}{{2.6}{11}{Gráfico de amplitudes y frecuencias para el calculo de rechazo a IMD de tercer orden\relax }{figure.caption.11}{}}
\@writefile{toc}{\contentsline {section}{\numberline {2.6}Experimento 6: An\IeC {\'a}lisis de una se\IeC {\~n}al modulada en frecuencia}{11}{section.2.6}}
\@writefile{lof}{\contentsline {figure}{\numberline {2.7}{\ignorespaces Esquema de conexi\IeC {\'o}n de generadores\relax }}{12}{figure.caption.12}}
\newlabel{fig:im7}{{2.7}{12}{Esquema de conexión de generadores\relax }{figure.caption.12}{}}
\@writefile{toc}{\contentsline {section}{\numberline {2.7}Experimento 7: An\IeC {\'a}lisis de la distorsi\IeC {\'o}n arm\IeC {\'o}nica producida por un amplificador}{13}{section.2.7}}
\@writefile{lof}{\contentsline {figure}{\numberline {2.8}{\ignorespaces Esquema de medici\IeC {\'o}n de la distorsi\IeC {\'o}n arm\IeC {\'o}nica en un amplificador\relax }}{13}{figure.caption.13}}
\newlabel{fig:im8}{{2.8}{13}{Esquema de medición de la distorsión armónica en un amplificador\relax }{figure.caption.13}{}}
\@writefile{toc}{\contentsline {chapter}{\numberline {3}Conclusi\IeC {\'o}n}{16}{chapter.3}}
\@writefile{lof}{\addvspace {10\p@ }}
\@writefile{lot}{\addvspace {10\p@ }}
\@writefile{toc}{\contentsline {section}{\numberline {3.1}Conclusiones finales}{16}{section.3.1}}
