\relax 
\providecommand\hyper@newdestlabel[2]{}
\catcode `"\active 
\catcode `<\active 
\catcode `>\active 
\@nameuse{es@quoting}
\catcode `'\active 
\providecommand\HyperFirstAtBeginDocument{\AtBeginDocument}
\HyperFirstAtBeginDocument{\ifx\hyper@anchor\@undefined
\global\let\oldcontentsline\contentsline
\gdef\contentsline#1#2#3#4{\oldcontentsline{#1}{#2}{#3}}
\global\let\oldnewlabel\newlabel
\gdef\newlabel#1#2{\newlabelxx{#1}#2}
\gdef\newlabelxx#1#2#3#4#5#6{\oldnewlabel{#1}{{#2}{#3}}}
\AtEndDocument{\ifx\hyper@anchor\@undefined
\let\contentsline\oldcontentsline
\let\newlabel\oldnewlabel
\fi}
\fi}
\global\let\hyper@last\relax 
\gdef\HyperFirstAtBeginDocument#1{#1}
\providecommand\HyField@AuxAddToFields[1]{}
\providecommand\HyField@AuxAddToCoFields[2]{}
\providecommand \oddpage@label [2]{}
\select@language{spanish}
\@writefile{toc}{\select@language{spanish}}
\@writefile{lof}{\select@language{spanish}}
\@writefile{lot}{\select@language{spanish}}
\@writefile{toc}{\contentsline {chapter}{\numberline {1}Introducci\IeC {\'o}n}{1}{chapter.1}}
\@writefile{lof}{\addvspace {10\p@ }}
\@writefile{lot}{\addvspace {10\p@ }}
\@writefile{toc}{\contentsline {section}{\numberline {1.1}Objetivo}{1}{section.1.1}}
\@writefile{toc}{\contentsline {section}{\numberline {1.2}Materiales e instrumental necesarios}{1}{section.1.2}}
\@writefile{toc}{\contentsline {section}{\numberline {1.3}Introducci\IeC {\'o}n}{1}{section.1.3}}
\@writefile{toc}{\contentsline {chapter}{\numberline {2}Desarrollo}{3}{chapter.2}}
\@writefile{lof}{\addvspace {10\p@ }}
\@writefile{lot}{\addvspace {10\p@ }}
\@writefile{toc}{\contentsline {section}{\numberline {2.1}Estimaci\IeC {\'o}n de valores}{3}{section.2.1}}
\@writefile{toc}{\contentsline {subsection}{Consigna}{3}{section*.2}}
\@writefile{toc}{\contentsline {subsection}{Resoluci\IeC {\'o}n}{3}{section*.3}}
\@writefile{toc}{\contentsline {subsubsection}{Circuito equivalente de alterna reflejado a la base}{3}{section*.4}}
\newlabel{eq:rb}{{2.1}{3}{Circuito equivalente de alterna reflejado a la base}{equation.2.1.1}{}}
\newlabel{eq:xc2}{{2.2}{3}{Circuito equivalente de alterna reflejado a la base}{equation.2.1.2}{}}
\newlabel{eq:z1}{{2.3}{3}{Circuito equivalente de alterna reflejado a la base}{equation.2.1.3}{}}
\@writefile{toc}{\contentsline {paragraph}{C\IeC {\'a}lculo de impedancia de entrada del transistor en configuraci\IeC {\'o}n emisor com\IeC {\'u}n con la salida en cortocircuito ($hie$)}{3}{section*.5}}
\@writefile{toc}{\contentsline {subsubsection}{Impedancia de entrada}{4}{section*.6}}
\newlabel{eq:zent}{{2.4}{4}{Impedancia de entrada}{equation.2.1.4}{}}
\@writefile{toc}{\contentsline {subsubsection}{Impedancia de salida}{4}{section*.7}}
\newlabel{eq:zsal}{{2.5}{4}{Impedancia de salida}{equation.2.1.5}{}}
\@writefile{toc}{\contentsline {subsubsection}{Ganancia de potencia}{5}{section*.8}}
\newlabel{eq:ai}{{2.6}{5}{Ganancia de potencia}{equation.2.1.6}{}}
\newlabel{eq:av}{{2.7}{5}{Ganancia de potencia}{equation.2.1.7}{}}
\newlabel{eq:ap}{{2.8}{5}{Ganancia de potencia}{equation.2.1.8}{}}
\@writefile{toc}{\contentsline {section}{\numberline {2.2}Experimento 1: Determinaci\IeC {\'o}n de la impedancia de salida del amplificador}{5}{section.2.2}}
\@writefile{toc}{\contentsline {subsection}{Consigna}{5}{section*.9}}
\@writefile{lof}{\contentsline {figure}{\numberline {2.1}{\ignorespaces Esquema de conexi\IeC {\'o}n de instrumentos para efectuar las mediciones.\relax }}{5}{figure.caption.10}}
\providecommand*\caption@xref[2]{\@setref\relax\@undefined{#1}}
\newlabel{fig:esq_des_1}{{2.1}{5}{Esquema de conexión de instrumentos para efectuar las mediciones.\relax }{figure.caption.10}{}}
\@writefile{toc}{\contentsline {subsection}{Resoluci\IeC {\'o}n}{6}{section*.11}}
\@writefile{toc}{\contentsline {section}{\numberline {2.3}Experimento 2: Determinaci\IeC {\'o}n de la impedancia de entrada del amplificador}{6}{section.2.3}}
\@writefile{toc}{\contentsline {subsection}{Consigna}{6}{section*.13}}
\@writefile{lof}{\contentsline {figure}{\numberline {2.2}{\ignorespaces Medici\IeC {\'o}n de la impedancia de entrada.\relax }}{7}{figure.caption.14}}
\newlabel{fig:esq_des_2}{{2.2}{7}{Medición de la impedancia de entrada.\relax }{figure.caption.14}{}}
\@writefile{toc}{\contentsline {subsection}{Resoluci\IeC {\'o}n}{7}{section*.15}}
\@writefile{toc}{\contentsline {section}{\numberline {2.4}Experiencia 3: Medici\IeC {\'o}n de la ganancia del amplificador}{7}{section.2.4}}
\@writefile{toc}{\contentsline {subsection}{Consigna}{7}{section*.17}}
\@writefile{lof}{\contentsline {figure}{\numberline {2.3}{\ignorespaces Medida de la ganancia del amplificador.\relax }}{8}{figure.caption.18}}
\newlabel{fig:esq_des_3}{{2.3}{8}{Medida de la ganancia del amplificador.\relax }{figure.caption.18}{}}
\@writefile{toc}{\contentsline {subsection}{Resoluci\IeC {\'o}n}{8}{section*.19}}
\@writefile{toc}{\contentsline {section}{\numberline {2.5}Experiencia 4: Medici\IeC {\'o}n de la potencia de salida del amplificador}{9}{section.2.5}}
\@writefile{toc}{\contentsline {subsection}{Consigna}{9}{section*.21}}
\@writefile{toc}{\contentsline {subsection}{Resoluci\IeC {\'o}n}{9}{section*.22}}
\@writefile{toc}{\contentsline {chapter}{\numberline {3}Conclusi\IeC {\'o}n}{10}{chapter.3}}
\@writefile{lof}{\addvspace {10\p@ }}
\@writefile{lot}{\addvspace {10\p@ }}
\@writefile{toc}{\contentsline {section}{\numberline {3.1}Enunciado}{10}{section.3.1}}
\@writefile{toc}{\contentsline {section}{\numberline {3.2}Conclusiones}{10}{section.3.2}}
