\relax 
\providecommand\hyper@newdestlabel[2]{}
\catcode `"\active 
\catcode `<\active 
\catcode `>\active 
\@nameuse{es@quoting}
\catcode `'\active 
\providecommand\HyperFirstAtBeginDocument{\AtBeginDocument}
\HyperFirstAtBeginDocument{\ifx\hyper@anchor\@undefined
\global\let\oldcontentsline\contentsline
\gdef\contentsline#1#2#3#4{\oldcontentsline{#1}{#2}{#3}}
\global\let\oldnewlabel\newlabel
\gdef\newlabel#1#2{\newlabelxx{#1}#2}
\gdef\newlabelxx#1#2#3#4#5#6{\oldnewlabel{#1}{{#2}{#3}}}
\AtEndDocument{\ifx\hyper@anchor\@undefined
\let\contentsline\oldcontentsline
\let\newlabel\oldnewlabel
\fi}
\fi}
\global\let\hyper@last\relax 
\gdef\HyperFirstAtBeginDocument#1{#1}
\providecommand\HyField@AuxAddToFields[1]{}
\providecommand\HyField@AuxAddToCoFields[2]{}
\providecommand \oddpage@label [2]{}
\babel@aux{spanish}{}
\@writefile{toc}{\contentsline {chapter}{\numberline {1}Introducci\IeC {\'o}n}{1}{chapter.1}}
\@writefile{lof}{\addvspace {10\p@ }}
\@writefile{lot}{\addvspace {10\p@ }}
\@writefile{toc}{\contentsline {section}{\numberline {1.1}Material e instrumental necesarios}{1}{section.1.1}}
\@writefile{toc}{\contentsline {chapter}{\numberline {2}Desarrollo}{3}{chapter.2}}
\@writefile{lof}{\addvspace {10\p@ }}
\@writefile{lot}{\addvspace {10\p@ }}
\@writefile{lof}{\contentsline {figure}{\numberline {2.1}{\ignorespaces Circuito de tubo fluorescente a ensayar\relax }}{3}{figure.caption.2}}
\providecommand*\caption@xref[2]{\@setref\relax\@undefined{#1}}
\newlabel{fig:circ-fluor}{{2.1}{3}{Circuito de tubo fluorescente a ensayar\relax }{figure.caption.2}{}}
\@writefile{toc}{\contentsline {section}{\numberline {2.1}Experimento 1: Medici\IeC {\'o}n de potencias del circuito}{3}{section.2.1}}
\@writefile{lof}{\contentsline {figure}{\numberline {2.2}{\ignorespaces Circuito de medici\IeC {\'o}n\relax }}{4}{figure.caption.3}}
\newlabel{fig:circ-med}{{2.2}{4}{Circuito de medición\relax }{figure.caption.3}{}}
\@writefile{lot}{\contentsline {table}{\numberline {2.1}{\ignorespaces Valores de tensi\IeC {\'o}n y corriente obtenidos\relax }}{4}{table.caption.4}}
\newlabel{tab:ten-cor-obt}{{2.1}{4}{Valores de tensión y corriente obtenidos\relax }{table.caption.4}{}}
\@writefile{toc}{\contentsline {subsection}{Factor de potencia}{4}{section*.5}}
\@writefile{lof}{\contentsline {figure}{\numberline {2.3}{\ignorespaces Figura de Lissajouss a obtener\relax }}{4}{figure.caption.6}}
\newlabel{fig:liss-a-obtener}{{2.3}{4}{Figura de Lissajouss a obtener\relax }{figure.caption.6}{}}
\@writefile{lof}{\contentsline {figure}{\numberline {2.4}{\ignorespaces Figura de Lissajouss obtenida\relax }}{5}{figure.caption.7}}
\newlabel{fig:liss-obtenida}{{2.4}{5}{Figura de Lissajouss obtenida\relax }{figure.caption.7}{}}
\newlabel{eq:cos}{{2.1}{5}{Factor de potencia}{equation.2.1.1}{}}
\@writefile{lof}{\contentsline {figure}{\numberline {2.5}{\ignorespaces Gr\IeC {\'a}fico en el dominio del tiempo\relax }}{6}{figure.caption.8}}
\newlabel{fig:graf-tiempo-1}{{2.5}{6}{Gráfico en el dominio del tiempo\relax }{figure.caption.8}{}}
\newlabel{eq:sen}{{2.2}{6}{Factor de potencia}{equation.2.1.2}{}}
\@writefile{toc}{\contentsline {subsection}{Potencias}{6}{section*.9}}
\@writefile{toc}{\contentsline {section}{\numberline {2.2}Experimento 2: Correcci\IeC {\'o}n del factor de potencia}{7}{section.2.2}}
\newlabel{eq:cap}{{2.7}{7}{Experimento 2: Corrección del factor de potencia}{equation.2.2.7}{}}
\@writefile{toc}{\contentsline {chapter}{\numberline {3}Conclusi\IeC {\'o}n}{8}{chapter.3}}
\@writefile{lof}{\addvspace {10\p@ }}
\@writefile{lot}{\addvspace {10\p@ }}
