\babel@toc {spanish}{}
\contentsline {chapter}{\numberline {1}Introducci\IeC {\'o}n}{1}{chapter.1}
\contentsline {section}{\numberline {1.1}Material e instrumental necesarios}{1}{section.1.1}
\contentsline {chapter}{\numberline {2}Desarrollo}{3}{chapter.2}
\contentsline {section}{\numberline {2.1}Experimento 1: Medici\IeC {\'o}n de potencias del circuito}{3}{section.2.1}
\contentsline {subsection}{Factor de potencia}{4}{section*.5}
\contentsline {subsection}{Potencias}{6}{section*.9}
\contentsline {section}{\numberline {2.2}Experimento 2: Correcci\IeC {\'o}n del factor de potencia}{7}{section.2.2}
\contentsline {chapter}{\numberline {3}Conclusi\IeC {\'o}n}{8}{chapter.3}
