\babel@toc {spanish}{}
\contentsline {chapter}{\numberline {1}Errores e Incertidumbre}{3}{chapter.1}
\contentsline {section}{\numberline {1.1}Comparacion de Errores}{3}{section.1.1}
\contentsline {section}{\numberline {1.2}Especificaciones de exactitud}{4}{section.1.2}
\contentsline {section}{\numberline {1.3}Errores en mediciones indirectas (Propagacion de errores)}{4}{section.1.3}
