\relax 
\providecommand\hyper@newdestlabel[2]{}
\catcode `"\active 
\catcode `<\active 
\catcode `>\active 
\@nameuse{es@quoting}
\catcode `'\active 
\providecommand\HyperFirstAtBeginDocument{\AtBeginDocument}
\HyperFirstAtBeginDocument{\ifx\hyper@anchor\@undefined
\global\let\oldcontentsline\contentsline
\gdef\contentsline#1#2#3#4{\oldcontentsline{#1}{#2}{#3}}
\global\let\oldnewlabel\newlabel
\gdef\newlabel#1#2{\newlabelxx{#1}#2}
\gdef\newlabelxx#1#2#3#4#5#6{\oldnewlabel{#1}{{#2}{#3}}}
\AtEndDocument{\ifx\hyper@anchor\@undefined
\let\contentsline\oldcontentsline
\let\newlabel\oldnewlabel
\fi}
\fi}
\global\let\hyper@last\relax 
\gdef\HyperFirstAtBeginDocument#1{#1}
\providecommand\HyField@AuxAddToFields[1]{}
\providecommand\HyField@AuxAddToCoFields[2]{}
\providecommand \oddpage@label [2]{}
\babel@aux{spanish}{}
\@writefile{toc}{\contentsline {chapter}{\numberline {1}Introducci\IeC {\'o}n}{1}{chapter.1}}
\@writefile{lof}{\addvspace {10\p@ }}
\@writefile{lot}{\addvspace {10\p@ }}
\newlabel{zo_eq}{{1.1}{1}{Introducción}{equation.1.0.1}{}}
\@writefile{toc}{\contentsline {section}{\numberline {1.1}Objetivo}{1}{section.1.1}}
\@writefile{toc}{\contentsline {section}{\numberline {1.2}Materiales e instrumental necesarios}{1}{section.1.2}}
\@writefile{toc}{\contentsline {chapter}{\numberline {2}Desarrollo}{3}{chapter.2}}
\@writefile{lof}{\addvspace {10\p@ }}
\@writefile{lot}{\addvspace {10\p@ }}
\@writefile{toc}{\contentsline {section}{\numberline {2.1}Experimento 1: Determinaci\IeC {\'o}n de la velocidad de propagaci\IeC {\'o}n en una l\IeC {\'\i }nea de transmisi\IeC {\'o}n mediante m\IeC {\'e}todo reflectom\IeC {\'e}trico.}{3}{section.2.1}}
\@writefile{lof}{\contentsline {figure}{\numberline {2.1}{\ignorespaces Esquema de conexiones para la medici\IeC {\'o}n\relax }}{4}{figure.caption.2}}
\@writefile{lof}{\contentsline {figure}{\numberline {2.2}{\ignorespaces Oscilogramas que se esperan obtener en cada caso\relax }}{5}{figure.caption.3}}
\@writefile{toc}{\contentsline {section}{\numberline {2.2}Experimento 2: Determinaci\IeC {\'o}n de la impedancia caracter\IeC {\'\i }stica una l\IeC {\'\i }nea de transmisi\IeC {\'o}n mediante m\IeC {\'e}todo reflectom\IeC {\'e}trico.}{6}{section.2.2}}
\@writefile{toc}{\contentsline {section}{\numberline {2.3}Experimento 3: Medici\IeC {\'o}n de la atenuaci\IeC {\'o}n por unidad de longitud.}{6}{section.2.3}}
\@writefile{toc}{\contentsline {chapter}{\numberline {3}Conclusi\IeC {\'o}n}{9}{chapter.3}}
\@writefile{lof}{\addvspace {10\p@ }}
\@writefile{lot}{\addvspace {10\p@ }}
\@writefile{toc}{\contentsline {section}{\numberline {3.1}Consignas}{9}{section.3.1}}
\@writefile{toc}{\contentsline {section}{\numberline {3.2}Conclusiones}{9}{section.3.2}}
