\BOOKMARK [0][-]{chapter.1}{Introducci\363n}{}% 1
\BOOKMARK [1][-]{section.1.1}{Objetivo}{chapter.1}% 2
\BOOKMARK [1][-]{section.1.2}{Materiales e instrumental necesarios}{chapter.1}% 3
\BOOKMARK [0][-]{chapter.2}{Desarrollo}{}% 4
\BOOKMARK [1][-]{section.2.1}{Experimento 1: Determinaci\363n de la velocidad de propagaci\363n en una l\355nea de transmisi\363n mediante m\351todo reflectom\351trico.}{chapter.2}% 5
\BOOKMARK [1][-]{section.2.2}{Experimento 2: Determinaci\363n de la impedancia caracter\355stica una l\355nea de transmisi\363n mediante m\351todo reflectom\351trico.}{chapter.2}% 6
\BOOKMARK [1][-]{section.2.3}{Experimento 3: Medici\363n de la atenuaci\363n por unidad de longitud.}{chapter.2}% 7
\BOOKMARK [0][-]{chapter.3}{Conclusi\363n}{}% 8
\BOOKMARK [1][-]{section.3.1}{Consignas}{chapter.3}% 9
\BOOKMARK [1][-]{section.3.2}{Conclusiones}{chapter.3}% 10
