\relax 
\providecommand\hyper@newdestlabel[2]{}
\catcode `"\active 
\catcode `<\active 
\catcode `>\active 
\@nameuse{es@quoting}
\catcode `'\active 
\providecommand\HyperFirstAtBeginDocument{\AtBeginDocument}
\HyperFirstAtBeginDocument{\ifx\hyper@anchor\@undefined
\global\let\oldcontentsline\contentsline
\gdef\contentsline#1#2#3#4{\oldcontentsline{#1}{#2}{#3}}
\global\let\oldnewlabel\newlabel
\gdef\newlabel#1#2{\newlabelxx{#1}#2}
\gdef\newlabelxx#1#2#3#4#5#6{\oldnewlabel{#1}{{#2}{#3}}}
\AtEndDocument{\ifx\hyper@anchor\@undefined
\let\contentsline\oldcontentsline
\let\newlabel\oldnewlabel
\fi}
\fi}
\global\let\hyper@last\relax 
\gdef\HyperFirstAtBeginDocument#1{#1}
\providecommand\HyField@AuxAddToFields[1]{}
\providecommand\HyField@AuxAddToCoFields[2]{}
\providecommand \oddpage@label [2]{}
\babel@aux{spanish}{}
\@writefile{toc}{\contentsline {chapter}{\numberline {1}Introducci\IeC {\'o}n}{2}{chapter.1}}
\@writefile{lof}{\addvspace {10\p@ }}
\@writefile{lot}{\addvspace {10\p@ }}
\@writefile{toc}{\contentsline {section}{\numberline {1.1}Objetivo}{2}{section.1.1}}
\@writefile{toc}{\contentsline {section}{\numberline {1.2}Materiales e Instrumental necesarios}{2}{section.1.2}}
\@writefile{toc}{\contentsline {section}{\numberline {1.3}Introducci\IeC {\'o}n}{2}{section.1.3}}
\@writefile{toc}{\contentsline {section}{\numberline {1.4}C\IeC {\'a}lculos para la medici\IeC {\'o}n de la resistencia de salida de amplificadores con realimentaci\IeC {\'o}n.}{3}{section.1.4}}
\@writefile{toc}{\contentsline {chapter}{\numberline {2}Desarrollo}{5}{chapter.2}}
\@writefile{lof}{\addvspace {10\p@ }}
\@writefile{lot}{\addvspace {10\p@ }}
\@writefile{toc}{\contentsline {section}{\numberline {2.1}Experimento 1: Determinaci\IeC {\'o}n de la Resistencia de salida a lazo abierto y a lazo cerrado.}{5}{section.2.1}}
\@writefile{toc}{\contentsline {subsection}{Paso 1}{6}{section*.2}}
\@writefile{toc}{\contentsline {subsection}{Paso 2}{6}{section*.3}}
\@writefile{toc}{\contentsline {subsection}{Paso 3}{6}{section*.4}}
\@writefile{toc}{\contentsline {subsection}{Paso 4}{7}{section*.5}}
\@writefile{toc}{\contentsline {section}{\numberline {2.2}Experimento 2: Medici\IeC {\'o}n de la potencia eficaz m\IeC {\'a}xima de salida.}{7}{section.2.2}}
\@writefile{toc}{\contentsline {subsection}{Paso 5}{7}{section*.6}}
\@writefile{toc}{\contentsline {section}{\numberline {2.3}Experimento 3: Ensayo de la respuesta en frecuencia (ancho de banda) del amplificador}{8}{section.2.3}}
\@writefile{toc}{\contentsline {subsection}{Paso 6}{8}{section*.7}}
\newlabel{grafAyB}{{2.3}{9}{Paso 6}{section*.7}{}}
\@writefile{toc}{\contentsline {section}{\numberline {2.4}Experimento 4: Determinaci\IeC {\'o}n de la respuesta en frecuencia del amplificador funcionando a lazo abierto mediante el empleo de una onda cuadrada}{10}{section.2.4}}
\newlabel{grafK}{{2.4}{10}{Experimento 4: Determinación de la respuesta en frecuencia del amplificador funcionando a lazo abierto mediante el empleo de una onda cuadrada}{section.2.4}{}}
\@writefile{toc}{\contentsline {subsection}{Paso 7}{10}{section*.8}}
\@writefile{toc}{\contentsline {chapter}{\numberline {3}Conclusion}{13}{chapter.3}}
\@writefile{lof}{\addvspace {10\p@ }}
\@writefile{lot}{\addvspace {10\p@ }}
\@writefile{toc}{\contentsline {section}{\numberline {3.1}Enunciado}{13}{section.3.1}}
\@writefile{toc}{\contentsline {section}{\numberline {3.2}Conclusiones}{13}{section.3.2}}
