\BOOKMARK [0][-]{chapter.1}{Introducci\363n}{}% 1
\BOOKMARK [1][-]{section.1.1}{Objetivo}{chapter.1}% 2
\BOOKMARK [1][-]{section.1.2}{Materiales e Instrumental necesarios}{chapter.1}% 3
\BOOKMARK [1][-]{section.1.3}{Introducci\363n}{chapter.1}% 4
\BOOKMARK [1][-]{section.1.4}{C\341lculos para la medici\363n de la resistencia de salida de amplificadores con realimentaci\363n.}{chapter.1}% 5
\BOOKMARK [0][-]{chapter.2}{Desarrollo}{}% 6
\BOOKMARK [1][-]{section.2.1}{Experimento 1: Determinaci\363n de la Resistencia de salida a lazo abierto y a lazo cerrado.}{chapter.2}% 7
\BOOKMARK [2][-]{section*.2}{Paso 1}{section.2.1}% 8
\BOOKMARK [2][-]{section*.3}{Paso 2}{section.2.1}% 9
\BOOKMARK [2][-]{section*.4}{Paso 3}{section.2.1}% 10
\BOOKMARK [2][-]{section*.5}{Paso 4}{section.2.1}% 11
\BOOKMARK [1][-]{section.2.2}{Experimento 2: Medici\363n de la potencia eficaz m\341xima de salida.}{chapter.2}% 12
\BOOKMARK [2][-]{section*.6}{Paso 5}{section.2.2}% 13
\BOOKMARK [1][-]{section.2.3}{Experimento 3: Ensayo de la respuesta en frecuencia \(ancho de banda\) del amplificador}{chapter.2}% 14
\BOOKMARK [2][-]{section*.7}{Paso 6}{section.2.3}% 15
\BOOKMARK [1][-]{section.2.4}{Experimento 4: Determinaci\363n de la respuesta en frecuencia del amplificador funcionando a lazo abierto mediante el empleo de una onda cuadrada}{chapter.2}% 16
\BOOKMARK [2][-]{section*.8}{Paso 7}{section.2.4}% 17
\BOOKMARK [0][-]{chapter.3}{Conclusion}{}% 18
\BOOKMARK [1][-]{section.3.1}{Enunciado}{chapter.3}% 19
\BOOKMARK [1][-]{section.3.2}{Conclusiones}{chapter.3}% 20
